…
  nrepeat = rep(1, 9),
  nbp = rep(20000, 9),
  lambda_d = c(rep(0.001756009, 3), rep(0.008513760, 3), rep(0.02310490, 3)),
  hr = rep(1, 9),
  tacc = rep(60, 9),
  tfu = rep(60, 9),
  lambda_lfu1 = rep(c(0.01, 0.01, 0.02), 3),
  lambda_lfu2 = rep(c(0.01, 0.02, 0.02), 3),
  t_lfu2 = rep(36, 9),
  hr_lfu = rep(1, 9),
  pinsee0 = rep(0.9, 9),
  pinsee1 = rep(0.9, 9),
  seed = 2023)
#> $dat
#> # A tibble: 180,000 × 25
#>    scenario nrepeat    id gr    time_accrual fu_theo delevt_true evt_true
#>       <int>   <int> <int> <fct>        <dbl>   <dbl>       <dbl>    <dbl>
#>  1        1       1     1 0            0.003    120.       120.         0
#>  2        1       1     2 1            0.006    120.       120.         0
#>  3        1       1     3 0            0.009    120.       120.         0
#>  4        1       1     4 1            0.012    120.       120.         0
#>  5        1       1     5 0            0.015    120.       120.         0
#>  6        1       1     6 1            0.018    120.       120.         0
#>  7        1       1     7 0            0.021    120.        56.3        1
#>  8        1       1     8 1            0.024    120.       120.         0
#>  9        1       1     9 0            0.027    120.       120.         0
#> 10        1       1    10 1            0.03     120.       120.         0
#> # ℹ 179,990 more rows
#> # ℹ 17 more variables: lfu_true1 <dbl>, del_cens <dbl>, delevt_emr <dbl>,
#> #   evt_emr <dbl>, lfu_emr <dbl>, ea_emr <dbl>, info_insee <int>,
#> #   evt_insee <dbl>, evt_emr_insee <dbl>, delevt_emr_insee <dbl>,
#> #   lfu_emr_insee <dbl>, ea_emr_insee <dbl>, delevt_emr_insee_imp <dbl>,
#> #   evt_emr_insee_imp <dbl>, lfu_emr_insee_imp <dbl>, ea_emr_insee_imp <dbl>,
#> #   imm_emr_insee_imp <dbl>
…
                  nbp = c(rep(1974, 4), rep(525, 4), rep(305, 4)),
                  lambda_d = c(rep(0.001756009, 4), rep(0.008513760, 4), rep(0.02310490, 4)),
                  hr = rep(0.7, 12),
                  tacc =  rep(60, 12),
                  tfu =   rep(60, 12),
                  lambda_lfu1 = rep(0.01, 12),
                  lambda_lfu2 = rep(0.02, 12),
                  t_lfu2 = rep(36, 12),
                  hr_lfu = rep(c(rep(1, 2), rep(1.1, 2)), 3),
                  pinsee0 = rep(c(0.9, 0.95), 6),
                  pinsee1 = rep(c(0.9, 0.95), 6),
                  seed = 2023)
estimate_approach2(sim)
#> $result
#> # A tibble: 6,000 × 30
#>    scenario nrepeat log_hr_true hr_true waldtest_true pval_test_true
#>       <dbl>   <dbl>       <dbl>   <dbl>         <dbl>          <dbl>
#>  1        1       1      -0.287   0.751          4.75       0.0293  
#>  2        1       2      -0.266   0.766          4.73       0.0296  
#>  3        1       3      -0.379   0.684          9.89       0.00166 
#>  4        1       4      -0.342   0.711          6.66       0.00985 
#>  5        1       5      -0.323   0.724          6.59       0.0103  
#>  6        1       6      -0.367   0.692          8.66       0.00325 
#>  7        1       7      -0.380   0.684          8.16       0.00428 
#>  8        1       8      -0.338   0.713          6.64       0.00996 
#>  9        1       9      -0.483   0.617         14.3        0.000158
#> 10        1      10      -0.240   0.787          3.34       0.0678  
#> # ℹ 5,990 more rows
#> # ℹ 24 more variables: success_uni_cox_true <dbl>, failure_cox_true <dbl>,
#> #   success_bi_cox_true <dbl>, log_hr_emr <dbl>, hr_emr <dbl>,
#> #   waldtest_emr <dbl>, pval_test_emr <dbl>, success_uni_cox_emr <dbl>,
#> #   failure_cox_emr <dbl>, success_bi_cox_emr <dbl>, log_hr_emr_insee <dbl>,
#> #   hr_emr_insee <dbl>, waldtest_emr_insee <dbl>, pval_test_emr_insee <dbl>,
#> #   success_uni_cox_emr_insee <dbl>, failure_cox_emr_insee <dbl>, …
…
